example.vcd
$date
	Sun Mar 30 15:05:49 2008
$end
$version
	ModelSim Version 6.2h
$end
$timescale
	1ps
$end
$scope module testbench $end
$scope module dut $end
$var reg 1 ! clk $end
$var reg 1 " reset $end
$var reg 8 # memdata [7:0] $end
$var reg 1 $ memread $end
$var reg 1 % memwrite $end
$var reg 8 & adr [7:0] $end
$var reg 8 ' writedata [7:0] $end
$upscope $end
$upscope $end
$enddefinitions $end
#0
$dumpvars
1!
1"
b1000100 #
1$
0%
b0 &
bx '
$end
#5
0!
#10
1!
#15
0!
#20
1!
#22
0"
#25
0!
#30
1!
b1 &
b0 #
#35
0!
#40
1!
b10 &
b10 #
#45
0!
#50
1!
b11 &
b10000000 #
#55
0!
#60
1!
0$
b100 &
b1000000 #
#65
0!
#70
1!
#75
0!
#80
1!
1$
b1000100 &
b101 #
#85
0!
#90
1!
0$
bx &
b100 &
b1000000 #
#95
0!
#100
1!
1$
#105
0!
#110
1!
b101 '
b101 &
b0 #
#115
0!
#120
1!
b110 &
b111 #
#125
0!
#130
1!
b111 &
b10000000 #
#135
0!
#140
1!
0$
bx '
b1000 &
b1000101 #
#145
0!
#150
1!
#155
0!
#160
1!
1$
b1000000 &
b11 #
#165
0!
#170
1!
0$
bx &
b1000 &
b1000101 #
#175
0!
#180
1!
1$
#185
0!
#190
1!
b11 '
b1001 &
b0 #
#195
0!
#200
1!
b1010 &
b11100011 #
#205
0!
#210
1!
b1011 &
b10000000 #
#215
0!
#220
1!
0$
bx '
b1100 &
b100101 #
#225
0!
#230
1!
#235
0!
#240
1!
1$
b1001000 &
b1100 #
#245
0!
#250
1!
0$
bx &
b1100 &
b100101 #
#255
0!
#260
1!
1$
#265
0!
#270
1!
b1100 '
b1101 &
b100000 #
#275
0!
#280
1!
b1110 &
b11100010 #
#285
0!
#290
1!
b1111 &
b0 #
#295
0!
#300
1!
0$
b101 '
b10000 &
b100100 #
#305
0!
#310
1!
#315
0!
#320
1!
#325
0!
#330
1!
1$
#335
0!
#340
1!
b10001 &
b101000 #
#345
0!
#350
1!
b10010 &
b1100100 #
#355
0!
#360
1!
b10011 &
b0 #
#365
0!
#370
1!
0$
b111 '
b10100 &
b100000 #
#375
0!
#380
1!
#385
0!
#390
1!
#395
0!
#400
1!
1$
#405
0!
#410
1!
b10101 &
b101000 #
#415
0!
#420
1!
b10110 &
b10100100 #
#425
0!
#430
1!
b10111 &
b0 #
#435
0!
#440
1!
0$
b11000 &
b1000 #
#445
0!
#450
1!
#455
0!
#460
1!
#465
0!
#470
1!
1$
#475
0!
#480
1!
b11001 &
b0 #
#485
0!
#490
1!
b11010 &
b10100111 #
#495
0!
#500
1!
b11011 &
b10000 #
#505
0!
#510
1!
0$
b11 '
b11100 &
b101010 #
#515
0!
#520
1!
#525
0!
#530
1!
1$
#535
0!
#540
1!
b11101 &
b110000 #
#545
0!
#550
1!
b11110 &
b1100100 #
#555
0!
#560
1!
b11111 &
b0 #
#565
0!
#570
1!
0$
b111 '
b100000 &
b1 #
#575
0!
#580
1!
#585
0!
#590
1!
#595
0!
#600
1!
1$
#605
0!
#610
1!
b100001 &
b0 #
#615
0!
#620
1!
b100010 &
b11000000 #
#625
0!
#630
1!
b100011 &
b10000 #
#635
0!
#640
1!
0$
b0 '
b100100 &
b0 #
#645
0!
#650
1!
#655
0!
#660
1!
1$
b101000 &
b101010 #
#665
0!
#670
1!
b101001 &
b110000 #
#675
0!
#680
1!
b101010 &
b11100010 #
#685
0!
#690
1!
b101011 &
b0 #
#695
0!
#700
1!
0$
b101 '
b101100 &
b100000 #
#705
0!
#710
1!
#715
0!
#720
1!
#725
0!
#730
1!
1$
#735
0!
#740
1!
b101101 &
b111000 #
#745
0!
#750
1!
b101110 &
b11000101 #
#755
0!
#760
1!
b101111 &
b0 #
#765
0!
#770
1!
0$
b1011 '
b110000 &
b100010 #
#775
0!
#780
1!
#785
0!
#790
1!
#795
0!
#800
1!
1$
#805
0!
#810
1!
b110001 &
b111000 #
#815
0!
#820
1!
b110010 &
b11100010 #
#825
0!
#830
1!
b110011 &
b0 #
#835
0!
#840
1!
0$
b101 '
b110100 &
b1111 #
#845
0!
#850
1!
#855
0!
#860
1!
#865
0!
#870
1!
1$
#875
0!
#880
1!
b110101 &
b0 #
#885
0!
#890
1!
b110110 &
#895
0!
#900
1!
b110111 &
b1000 #
#905
0!
#910
1!
0$
b0 '
b111000 &
b0 #
#915
0!
#920
1!
#925
0!
#930
1!
1$
b111100 &
b1000111 #
#935
0!
#940
1!
b111101 &
b0 #
#945
0!
#950
1!
b111110 &
b1000111 #
#955
0!
#960
1!
b111111 &
b10100000 #
#965
0!
#970
1!
0$
b111 '
b1000000 &
b11 #
#975
0!
#980
1!
#985
0!
#990
1!
1%
b1001100 &
bx #
